<?xml version="1.0" encoding="UTF-8" standalone="no"?>
<svg
   xmlns:dc="http://purl.org/dc/elements/1.1/"
   xmlns:cc="http://creativecommons.org/ns#"
   xmlns:rdf="http://www.w3.org/1999/02/22-rdf-syntax-ns#"
   xmlns:svg="http://www.w3.org/2000/svg"
   xmlns="http://www.w3.org/2000/svg"
   xmlns:sodipodi="http://sodipodi.sourceforge.net/DTD/sodipodi-0.dtd"
   xmlns:inkscape="http://www.inkscape.org/namespaces/inkscape"
   version="1.1"
   id="svg2040"
   xml:space="preserve"
   width="398.50665"
   height="280.65134"
   viewBox="0 0 398.50667 280.65135"
   sodipodi:docname="tree.svg"
   inkscape:version="1.0.1 (3bc2e813f5, 2020-09-07)"><metadata
     id="metadata2046"><rdf:RDF><cc:Work
         rdf:about=""><dc:format>image/svg+xml</dc:format><dc:type
           rdf:resource="http://purl.org/dc/dcmitype/StillImage" /><dc:title></dc:title></cc:Work></rdf:RDF></metadata><defs
     id="defs2044"><clipPath
       clipPathUnits="userSpaceOnUse"
       id="clipPath2070"><path
         d="M 521.42,604.08 H 673.84 V 631.2 H 521.42 Z"
         clip-rule="evenodd"
         id="path2068" /></clipPath><clipPath
       clipPathUnits="userSpaceOnUse"
       id="clipPath2084"><path
         d="M 598.49,595.99 H 714.55 V 764.61 H 598.49 Z"
         clip-rule="evenodd"
         id="path2082" /></clipPath><clipPath
       clipPathUnits="userSpaceOnUse"
       id="clipPath2102"><path
         d="M 598.49,595.99 H 714.55 V 764.61 H 598.49 Z"
         clip-rule="evenodd"
         id="path2100" /></clipPath><clipPath
       clipPathUnits="userSpaceOnUse"
       id="clipPath2112"><path
         d="M 598.49,595.99 H 714.55 V 764.61 H 598.49 Z"
         clip-rule="evenodd"
         id="path2110" /></clipPath><clipPath
       clipPathUnits="userSpaceOnUse"
       id="clipPath2134"><path
         d="m 343.06,491.11 h 342.53 v 94.32 H 343.06 Z"
         clip-rule="evenodd"
         id="path2132" /></clipPath><clipPath
       clipPathUnits="userSpaceOnUse"
       id="clipPath2152"><path
         d="m 343.06,491.11 h 342.53 v 94.32 H 343.06 Z"
         clip-rule="evenodd"
         id="path2150" /></clipPath><clipPath
       clipPathUnits="userSpaceOnUse"
       id="clipPath2162"><path
         d="m 343.06,491.11 h 342.53 v 94.32 H 343.06 Z"
         clip-rule="evenodd"
         id="path2160" /></clipPath><clipPath
       clipPathUnits="userSpaceOnUse"
       id="clipPath2186"><path
         d="M 334.58,644.23 H 464.9 v 54.624 H 334.58 Z"
         clip-rule="evenodd"
         id="path2184" /></clipPath><clipPath
       clipPathUnits="userSpaceOnUse"
       id="clipPath2214"><path
         d="m 124.78,511.7 h 160.56 v 50.04 H 124.78 Z"
         clip-rule="evenodd"
         id="path2212" /></clipPath><clipPath
       clipPathUnits="userSpaceOnUse"
       id="clipPath2248"><path
         d="m 64.56,0.023987 h 53.544 v 11.16 H 64.56 Z"
         clip-rule="evenodd"
         id="path2246" /></clipPath><clipPath
       clipPathUnits="userSpaceOnUse"
       id="clipPath2256"><path
         d="m 64.56,0.14398 h 53.544 v 11.04 H 64.56 Z"
         clip-rule="evenodd"
         id="path2254" /></clipPath><clipPath
       clipPathUnits="userSpaceOnUse"
       id="clipPath2264"><path
         d="m 0,0.023987 h 1190.64 v 11.16 H 0 Z"
         clip-rule="evenodd"
         id="path2262" /></clipPath><clipPath
       clipPathUnits="userSpaceOnUse"
       id="clipPath2272"><path
         d="m 0,0.14398 h 1190.64 v 11.04 H 0 Z"
         clip-rule="evenodd"
         id="path2270" /></clipPath><clipPath
       clipPathUnits="userSpaceOnUse"
       id="clipPath2284"><path
         d="m 1072.63,0.023987 h 53.52 v 11.16 h -53.52 z"
         clip-rule="evenodd"
         id="path2282" /></clipPath><clipPath
       clipPathUnits="userSpaceOnUse"
       id="clipPath2292"><path
         d="m 1072.63,0.14398 h 53.52 v 11.04 h -53.52 z"
         clip-rule="evenodd"
         id="path2290" /></clipPath></defs><sodipodi:namedview
     pagecolor="#ffffff"
     bordercolor="#666666"
     borderopacity="1"
     objecttolerance="10"
     gridtolerance="10"
     guidetolerance="10"
     inkscape:pageopacity="0"
     inkscape:pageshadow="2"
     inkscape:window-width="1920"
     inkscape:window-height="1016"
     id="namedview2042"
     showgrid="false"
     inkscape:zoom="0.76243411"
     inkscape:cx="852.48771"
     inkscape:cy="265.12597"
     inkscape:window-x="0"
     inkscape:window-y="27"
     inkscape:window-maximized="1"
     inkscape:current-layer="g2048"
     inkscape:document-rotation="0"
     fit-margin-top="0"
     fit-margin-left="0"
     fit-margin-right="-520"
     fit-margin-bottom="0" /><g
     id="g2048"
     inkscape:groupmode="layer"
     inkscape:label="hel"
     transform="matrix(1.3333333,0,0,-1.3333333,-454.58666,954.66465)"><g
       id="g2050"><path
         d="m 1029.34,505.99 0.24,-0.41 c 0.07,-0.07 0.12,-0.07 0.19,-0.07 0.05,0.07 0.05,0.12 0.05,0.19 l -0.24,0.41 c -0.05,0.07 -0.12,0.12 -0.17,0.07 -0.07,-0.07 -0.07,-0.12 -0.07,-0.19 z"
         style="fill:#000000;fill-opacity:1;fill-rule:nonzero;stroke:none"
         id="path2052" /><path
         d="m 458.16,673.34 0.41,0.51 -0.43,-0.24 0.14,0.02 c 0.41,0.05 0.7,0.41 0.7,0.82 0,0.38 -0.29,0.74 -0.7,0.79 -0.41,0.05 -0.77,-0.24 -0.86,-0.62 l -0.05,-0.2 0.05,0.17 -0.22,-0.48 0.02,0.05 -0.45,-0.84 0.02,0.02 -0.74,-1.2 0.02,0.03 -1.29,-1.9 v 0 l -1.73,-2.57 0.02,0.05 -2.23,-2.95 -0.02,-0.05 -2.57,-3.79 0.02,0.02 -2.93,-4.17 0.03,0.02 -3.24,-4.49 v 0.03 l -3.31,-4.56 -0.05,-0.03 -3.1,-4.72 h -0.02 l -2.91,-4.47 v 0 l -2.59,-4.01 v 0 l -2.45,-3.88 0.03,0.04 -2.38,-3.52 -0.02,-0.03 -2.04,-3.21 v -0.05 l -1.59,-2.67 v 0.03 l -1.29,-2.07 v -0.02 l -0.99,-1.61 v -0.02 l -0.72,-1.23 -0.04,-0.07 -0.44,-0.86 0.03,0.05 -0.27,-0.48 c -0.28,-0.48 -0.12,-1.11 0.36,-1.4 0.51,-0.28 1.11,-0.12 1.4,0.36 l 0.31,0.56 h 0.02 l 0.55,0.98 v 0 l 0.72,1.25 c 0.15,0.29 0.08,0.65 -0.19,0.84 -0.26,0.19 -0.62,0.17 -0.86,-0.07 l -0.96,-1.04 -0.07,-0.07 -0.68,-0.89 0.15,0.15 -0.48,-0.39 c -0.31,-0.24 -0.48,-0.64 -0.39,-1.03 0.1,-0.38 0.41,-0.69 0.8,-0.77 0.4,-0.07 0.79,0.08 1.03,0.39 l 0.33,0.48 0.1,0.14 0.43,0.87 -0.05,-0.08 0.75,1.25 v 0 l 0.96,1.61 v -0.02 l 1.29,2.08 v 0 l 1.59,2.67 v -0.03 l 2.04,3.24 v -0.02 l 2.33,3.53 0.02,0.02 2.42,3.89 v -0.02 l 2.55,4.03 v -0.03 l 2.88,4.52 v 0 l 3.07,4.72 -0.02,-0.04 3.28,4.6 v 0 l 3.2,4.49 v 0 l 2.88,4.18 0.02,0.02 2.54,3.79 -0.04,-0.02 2.25,2.95 0.03,0.03 1.72,2.59 v 0 l 1.28,1.89 0.02,0.05 0.74,1.2 v 0.05 l 0.46,0.86 0.05,0.1 0.17,0.5 c 0.04,0.15 0.07,0.32 0.04,0.48 l -0.04,0.2 c -0.08,0.28 -0.32,0.52 -0.6,0.57 -0.32,0.1 -0.6,-0.02 -0.8,-0.24 -0.19,-0.24 -0.24,-0.55 -0.12,-0.84 l 0.05,-0.12 -0.02,0.46 -0.22,-0.6 c -0.09,-0.27 0.03,-0.53 0.24,-0.65 0.22,-0.12 0.51,-0.05 0.65,0.14 z"
         style="fill:#000000;fill-opacity:1;fill-rule:nonzero;stroke:none"
         id="path2054" /><path
         d="m 482.4,667.99 0.02,0.05 0.1,0.12 0.02,0.1 0.1,0.16 v 0.1 c 0.12,0.36 0.02,0.74 -0.24,1.03 l -0.1,0.07 0.05,-0.04 -0.07,0.12 -0.12,0.12 -0.1,0.09 0.05,-0.07 -0.17,0.22 c -0.12,0.12 -0.26,0.24 -0.43,0.28 l -0.19,0.1 0.17,-0.12 -0.29,0.22 v 0 l -0.34,0.21 -0.19,0.12 -0.41,0.17 h -0.02 l -0.55,0.22 0.14,-0.08 -0.53,0.32 -0.09,0.02 -0.63,0.31 -0.07,0.03 -0.72,0.26 v 0 l -0.74,0.31 -0.05,0.03 -0.89,0.28 h -0.05 l -0.96,0.32 -0.12,0.02 -1.05,0.19 h -0.03 l -1.32,0.19 h -0.04 l -1.47,0.2 h -0.05 l -1.75,0.12 h -0.02 l -1.8,0.09 h -0.07 -1.83 -0.05 l -1.8,-0.09 h -0.09 l -1.8,-0.22 v 0 l -2.04,-0.17 -0.1,-0.05 -2.13,-0.36 h 0.04 l -2.25,-0.36 -0.12,-0.02 -2.35,-0.6 h -0.03 l -2.33,-0.65 -0.12,-0.05 -2.25,-0.84 -0.07,-0.02 -2.33,-1.06 -0.12,-0.04 -2.35,-1.32 -0.08,-0.08 -2.35,-1.51 v 0.03 l -2.33,-1.52 -0.09,-0.07 -2.26,-1.73 h 0.03 l -2.16,-1.6 -0.08,-0.08 -1.92,-1.7 -0.07,-0.02 -1.8,-1.83 -0.12,-0.12 -1.58,-2.09 -0.03,-0.04 -1.51,-2.19 -0.05,-0.09 -1.29,-2.31 v 0 l -1.3,-2.4 -0.02,-0.07 -1.18,-2.54 -0.02,-0.08 -1.08,-2.64 -0.03,-0.12 -0.96,-3.02 -0.04,-0.02 -0.84,-3.03 -0.03,-0.09 -0.6,-3.08 -0.02,-0.02 -0.55,-3.12 v -0.07 l -0.41,-3.51 v -0.02 l -0.36,-3.55 v -0.03 l -0.19,-3.45 v 0.07 l -0.29,-3.24 -0.03,-0.12 v -3.31 -0.07 l 0.2,-3.24 v -0.05 l 0.33,-3.24 v -0.05 l 0.46,-3.02 v -0.05 l 0.5,-2.93 0.03,-0.07 0.64,-2.93 0.03,-0.02 0.72,-3.05 0.02,-0.05 0.87,-3.07 0.04,-0.07 1.04,-2.84 0.07,-0.14 1.37,-2.74 0.07,-0.12 1.61,-2.59 0.04,-0.05 1.83,-2.47 0.05,-0.07 2.13,-2.47 v -0.03 l 2.16,-2.37 0.03,-0.05 2.37,-2.38 0.07,-0.07 2.55,-2.18 0.09,-0.05 2.79,-2.02 0.09,-0.07 3.12,-1.8 0.03,-0.02 3.09,-1.61 0.12,-0.07 3.41,-1.42 0.03,-0.02 3.52,-1.32 0.12,-0.05 3.75,-1.06 h 0.09 l 3.72,-0.79 h 0.08 l 3.72,-0.55 h 0.07 l 3.84,-0.48 h 0.09 l 3.92,-0.22 h 0.09 l 3.89,0.1 h 0.02 l 3.63,0.19 h 0.07 l 3.62,0.36 h 0.05 l 3.65,0.58 0.07,0.02 3.55,0.77 0.12,0.02 3.34,1.06 0.12,0.02 3.07,1.35 h 0.05 l 3,1.41 0.05,0.05 3,1.61 v 0 l 3,1.61 0.07,0.02 2.78,1.75 0.05,0.03 2.57,1.77 0.12,0.12 2.23,2.02 0.07,0.05 2.16,2.16 0.05,0.09 1.92,2.28 0.07,0.03 1.8,2.4 0.03,0.02 1.58,2.28 0.05,0.05 1.73,2.66 0.02,0.03 1.61,2.66 0.05,0.12 1.29,2.79 0.03,0.07 1.08,2.85 v 0.03 l 0.98,2.85 v 0.08 l 0.77,2.66 v 0.05 l 0.65,2.64 0.02,0.07 0.55,2.76 v 0.05 l 0.41,2.97 v 0.03 l 0.34,3.07 v 0.05 l 0.12,2.97 v 0.03 2.69 0.12 l -0.22,2.44 v 0.03 l -0.19,2.47 -0.05,0.1 -0.41,2.66 v 0.02 l -0.55,2.76 -0.02,0.08 -0.63,2.76 -0.02,0.07 -0.77,2.47 v 0.07 l -0.86,2.35 -0.03,0.08 -0.96,2.28 0.03,-0.03 -0.96,2.47 v 0 l -0.96,2.48 v 0 l -0.96,2.44 -0.03,0.08 -1.08,2.4 -0.07,0.12 -1.27,2.18 -0.07,0.1 -1.37,2.01 -0.12,0.12 -1.56,1.8 -0.05,0.03 -1.73,1.8 -0.07,0.04 -1.8,1.73 v 0 l -1.82,1.71 v 0 l -1.8,1.7 -0.03,0.02 -1.82,1.64 -0.05,0.02 -1.92,1.63 -0.07,0.05 -2.04,1.42 -0.07,0.04 -2.14,1.32 v 0 l -2.04,1.28 -0.12,0.04 -1.99,1.04 h -0.05 l -2.04,0.96 -0.02,0.02 -1.92,0.84 -0.1,0.02 -1.8,0.7 -0.07,0.02 -1.97,0.58 -0.12,0.02 -1.92,0.39 h -0.05 l -1.89,0.29 h -0.12 l -1.95,0.12 h -0.02 l -1.8,0.07 h -0.17 l -1.61,-0.12 h -0.07 l -1.37,-0.19 h -0.02 l -1.08,-0.15 -0.19,-0.02 -0.89,-0.31 c -0.17,-0.03 -0.29,-0.12 -0.41,-0.22 l -0.48,-0.46 -0.17,-0.26 -0.24,-0.53 c -0.09,-0.24 -0.07,-0.48 0.15,-0.67 0.19,-0.17 0.45,-0.22 0.67,-0.1 l 0.5,0.29 -0.26,-0.09 0.65,0.04 h -0.17 l 0.96,-0.04 h 0.07 1.08 0.05 l 1.37,0.04 v 0 l 1.63,0.08 h -0.12 l 1.8,-0.1 v 0 l 1.92,-0.12 h -0.12 l 1.87,-0.26 h -0.02 l 1.92,-0.36 -0.12,0.02 1.92,-0.58 -0.1,0.05 1.8,-0.69 -0.05,0.02 1.92,-0.84 h -0.02 l 2.04,-0.96 -0.05,0.02 2.02,-1 -0.1,0.02 2.04,-1.22 h -0.02 l 2.13,-1.32 -0.07,0.02 2.04,-1.42 -0.07,0.08 1.92,-1.64 -0.05,0.05 1.85,-1.63 -0.05,0.02 1.8,-1.68 v 0 l 1.85,-1.72 v 0 l 1.8,-1.71 -0.05,0.05 1.73,-1.8 -0.05,0.02 1.61,-1.8 -0.1,0.17 1.37,-2.01 -0.05,0.09 1.3,-2.21 -0.1,0.12 1.08,-2.35 -0.02,0.05 0.98,-2.45 v 0 l 0.96,-2.49 v 0 l 0.96,-2.48 v -0.02 l 0.99,-2.28 -0.03,0.07 0.84,-2.37 -0.02,0.09 0.74,-2.47 -0.02,0.05 0.65,-2.76 v 0.05 l 0.5,-2.74 v 0.02 l 0.43,-2.66 v 0.1 l 0.24,-2.48 -0.02,0.03 0.19,-2.45 v 0.1 -2.69 0.07 l -0.12,-2.95 v 0.09 l -0.29,-3.02 v 0.05 l -0.43,-2.95 0.05,0.07 -0.55,-2.76 v 0.07 l -0.65,-2.66 0.02,0.02 -0.74,-2.66 0.02,0.07 -0.96,-2.81 v 0.02 l -1.05,-2.88 0.02,0.12 -1.27,-2.76 0.07,0.12 -1.58,-2.66 0.02,0.02 -1.73,-2.64 0.03,0.03 -1.59,-2.28 0.03,0.07 -1.8,-2.4 0.02,0.05 -1.92,-2.26 0.07,0.07 -2.13,-2.18 0.02,0.05 -2.21,-2.02 0.12,0.1 -2.54,-1.78 0.05,0.05 -2.76,-1.75 0.07,0.02 -3,-1.61 v 0 l -2.98,-1.63 0.05,0.07 -3,-1.44 0.05,0.03 -3.1,-1.35 0.12,0.05 -3.31,-1.03 0.12,0.02 -3.53,-0.79 0.05,0.05 -3.62,-0.58 h 0.09 L 480,562.46 h 0.05 l -3.63,-0.21 h 0.03 l -3.87,-0.1 h 0.12 l -3.96,0.22 0.08,-0.03 -3.84,0.46 h 0.04 l -3.76,0.55 h 0.07 l -3.72,0.77 h 0.09 l -3.76,1.01 0.12,-0.03 -3.53,1.32 h 0.02 l -3.41,1.42 0.08,-0.07 -3.08,1.63 0.05,-0.05 -3.12,1.85 0.1,-0.1 -2.76,1.97 0.09,-0.05 -2.59,2.19 0.1,-0.05 -2.38,2.35 0.07,-0.05 -2.16,2.4 0.03,-0.02 -2.14,2.45 0.07,-0.05 -1.84,2.45 0.07,-0.1 -1.63,2.59 0.07,-0.09 -1.39,2.76 0.07,-0.15 -1.06,2.86 0.03,-0.1 -0.89,3.08 0.02,-0.08 -0.74,3.03 v 0 l -0.63,2.95 v -0.07 l -0.52,2.95 v -0.02 l -0.44,3.02 v -0.07 l -0.31,3.24 v -0.03 l -0.17,3.22 v -0.07 3.31 l -0.04,-0.12 0.33,3.24 v 0.05 l 0.22,3.43 v -0.07 l 0.33,3.53 v -0.05 l 0.41,3.55 v -0.07 l 0.55,3.09 -0.04,-0.02 0.64,3.07 -0.04,-0.09 0.88,3.02 -0.04,-0.02 1,3.02 -0.04,-0.1 1.05,2.69 V 645 l 1.18,2.54 -0.03,-0.04 1.28,2.37 h -0.03 l 1.3,2.28 -0.07,-0.09 1.51,2.16 -0.03,-0.03 1.59,2.07 -0.12,-0.12 1.82,1.8 -0.05,-0.08 1.92,1.73 -0.09,-0.07 2.16,1.63 h 0.02 l 2.23,1.73 -0.09,-0.1 2.37,1.54 v 0 l 2.33,1.54 -0.05,-0.08 2.36,1.37 -0.12,-0.07 2.35,1.06 -0.07,-0.03 2.25,0.87 -0.12,-0.08 2.35,0.68 v 0 l 2.33,0.6 -0.09,-0.03 2.23,0.36 0.02,0.03 2.11,0.36 -0.09,-0.03 2.04,0.19 h 0.02 l 1.8,0.22 -0.05,-0.02 1.8,0.09 h -0.07 1.83 -0.05 l 1.8,-0.07 h -0.03 l 1.73,-0.12 h -0.05 l 1.47,-0.17 -0.03,0.03 1.28,-0.22 h -0.03 l 1.06,-0.17 h -0.12 l 0.96,-0.29 h -0.03 l 0.87,-0.26 -0.05,0.02 0.74,-0.26 v 0 l 0.75,-0.29 -0.05,0.03 0.65,-0.27 -0.05,0.03 0.53,-0.27 0.12,-0.07 0.57,-0.17 h -0.02 l 0.41,-0.17 -0.22,0.1 0.34,-0.17 v -0.05 l 0.33,-0.16 0.22,-0.1 0.24,-0.1 -0.41,0.24 0.22,-0.16 0.19,-0.15 0.12,-0.07 -0.12,0.1 0.12,-0.12 0.14,-0.1 0.15,-0.05 -0.53,0.65 v -0.1 l 0.07,-0.16 0.05,-0.1 0.07,-0.12 0.05,-0.05 c 0.17,-0.29 0.48,-0.43 0.77,-0.43 0.31,0 0.6,0.14 0.79,0.43 z"
         style="fill:#000000;fill-opacity:1;fill-rule:nonzero;stroke:none"
         id="path2056" /><path
         d="m 480.67,670.32 0.6,0.38 0.05,0.03 0.55,0.45 -0.67,-0.07 0.07,-0.05 0.19,-0.07 0.2,-0.02 0.02,-0.03 0.22,-0.02 -0.51,0.31 0.05,-0.05 -0.12,0.77 -0.12,-0.38 0.07,0.14 -0.43,-0.74 v 0 l -0.79,-1.32 -0.03,-0.03 -1.05,-1.87 0.02,0.03 -1.39,-2.26 v 0 l -1.75,-2.86 0.02,0.05 -2.45,-3.53 v 0 l -2.88,-4.08 v 0.03 l -3.31,-4.56 -0.02,-0.03 -3.63,-5.42 0.03,0.02 -3.99,-5.4 v 0 l -4.15,-5.56 -0.02,-0.05 -3.96,-5.81 0.02,0.02 -3.77,-5.3 0.03,0.02 -3.75,-5.13 -0.02,-0.03 -3.55,-5.11 v 0.03 l -3.22,-4.49 v 0 l -2.78,-4.01 v 0 l -2.35,-3.41 v 0.03 l -1.92,-2.76 -0.05,-0.05 -1.47,-2.28 v 0 l -1.08,-1.73 0.03,0.05 -0.84,-1.25 -0.03,-0.05 -0.52,-0.86 0.04,0.09 -0.28,-0.38 c -0.32,-0.38 -0.29,-0.96 0.07,-1.32 0.36,-0.36 0.93,-0.41 1.32,-0.12 0.41,0.31 0.53,0.86 0.29,1.32 l -0.03,0.05 0.1,-0.7 0.12,0.58 v -0.07 l 0.29,0.88 v -0.04 l 0.5,1.2 -0.02,-0.05 0.84,1.61 c 0.12,0.21 0.04,0.5 -0.17,0.62 -0.24,0.14 -0.51,0.1 -0.67,-0.12 l -1.08,-1.44 v 0 l -0.77,-1.03 -0.03,-0.05 -0.52,-0.77 -0.08,-0.14 -0.24,-0.53 0.03,0.05 -0.05,-0.05 c -0.24,-0.46 -0.1,-1.03 0.29,-1.32 0.43,-0.29 1.01,-0.24 1.34,0.14 l 0.34,0.34 0.09,0.14 0.56,0.87 v -0.05 l 0.84,1.25 0.02,0.05 1.08,1.7 v -0.02 l 1.46,2.3 v -0.02 l 1.92,2.73 v 0.03 l 2.36,3.38 v 0 l 2.76,4.01 v -0.03 l 3.19,4.52 v 0 l 3.53,5.13 v -0.02 l 3.72,5.13 0.02,0.03 3.74,5.3 v 0.03 l 3.94,5.8 -0.02,-0.04 4.17,5.59 v 0.02 l 3.96,5.4 0.03,0.03 3.62,5.42 -0.02,-0.02 3.31,4.56 0.02,0.02 2.88,4.08 v 0 l 2.45,3.53 0.02,0.05 1.71,2.85 v 0 l 1.39,2.28 v 0.05 l 1.03,1.92 v -0.02 l 0.77,1.34 v 0.02 l 0.41,0.77 0.07,0.22 0.1,0.41 c 0.09,0.38 -0.1,0.79 -0.48,0.96 -0.39,0.16 -0.82,0.04 -1.06,-0.29 l -0.05,-0.05 0.51,0.31 -0.22,-0.05 h -0.02 l -0.2,-0.02 -0.19,-0.1 -0.07,-0.02 -0.17,-0.12 -0.5,-0.53 -0.03,-0.02 -0.45,-0.55 c -0.17,-0.2 -0.15,-0.46 0,-0.63 0.17,-0.17 0.43,-0.21 0.62,-0.07 z"
         style="fill:#000000;fill-opacity:1;fill-rule:nonzero;stroke:none"
         id="path2058" /><path
         d="m 500.88,665.14 0.89,0.5 h 0.02 l 0.43,0.26 -0.09,-0.02 0.57,0.22 -0.09,-0.03 0.21,0.05 h -0.07 l 0.24,0.02 h -0.26 l 0.21,-0.02 -0.09,0.02 0.14,-0.04 c 0.48,-0.15 1.01,0.09 1.18,0.52 0.19,0.48 -0.03,1.01 -0.48,1.25 -0.46,0.19 -0.99,0.03 -1.23,-0.43 l -0.14,-0.26 0.07,0.12 -0.31,-0.44 -0.1,-0.14 -0.45,-0.86 0.07,0.09 -0.77,-1.13 v -0.02 l -1.1,-1.68 0.02,0.02 -1.49,-2.08 v 0 l -2.04,-2.96 -0.02,-0.04 -2.35,-3.68 v 0.05 l -3.1,-4.49 v -0.02 l -3.65,-5.62 v 0 l -3.74,-5.78 v 0 l -4.06,-6.38 v 0.02 l -4.29,-6.46 v 0 l -4.47,-6.62 -0.04,-0.02 -4.16,-6.96 v 0.02 l -4.29,-6.74 v 0 l -4.15,-6.65 v 0 l -3.87,-6 v 0 l -3.33,-5.21 v -0.05 l -2.79,-4.63 v 0.02 l -2.49,-3.98 v -0.05 l -1.8,-3.02 v 0.02 l -1.4,-2.28 v 0 l -1.05,-1.73 0.05,0.1 -0.41,-0.6 c -0.34,-0.46 -0.27,-1.13 0.14,-1.51 0.46,-0.39 1.11,-0.39 1.54,0 0.41,0.38 0.48,1.05 0.14,1.51 l -0.12,0.17 0.19,-0.84 0.17,0.79 -0.05,-0.12 0.48,1.25 v 0 l 0.68,1.77 c 0.09,0.27 -0.03,0.58 -0.29,0.7 -0.24,0.14 -0.55,0.05 -0.7,-0.19 l -1.01,-1.61 0.03,0.05 -0.82,-1.11 -0.02,-0.07 -0.46,-0.67 c -0.14,-0.22 -0.17,-0.53 -0.14,-0.79 l 0.02,-0.22 c 0.1,-0.41 0.43,-0.74 0.82,-0.86 0.41,-0.12 0.86,0 1.17,0.33 l 0.48,0.53 0.12,0.19 1.04,1.71 v 0 l 1.39,2.28 v 0 l 1.82,3.07 v -0.05 l 2.43,4.03 h 0.04 l 2.76,4.66 -0.04,-0.05 3.33,5.23 h -0.02 l 3.86,6.03 v 0 l 4.18,6.65 v 0 l 4.29,6.74 v 0 l 4.16,6.96 -0.03,-0.07 4.49,6.67 v 0 l 4.25,6.48 h 0.02 l 4.03,6.38 v 0 l 3.75,5.81 v 0 l 3.62,5.59 -0.02,-0.02 3.09,4.46 v 0.08 l 2.38,3.64 -0.05,-0.02 2.04,2.98 v -0.03 l 1.51,2.09 0.03,0.07 1.05,1.71 v 0 l 0.72,1.12 0.1,0.12 0.38,0.89 -0.07,-0.09 0.31,0.45 0.12,0.27 0.05,0.28 c 0.17,0.46 -0.12,0.96 -0.55,1.16 -0.48,0.14 -1.01,-0.08 -1.2,-0.51 l -0.07,-0.17 0.57,0.46 -0.21,-0.02 -0.27,-0.1 -0.19,-0.12 -0.14,-0.12 -0.15,-0.14 0.12,0.09 -0.5,-0.33 -0.05,-0.03 -0.41,-0.31 h -0.02 l -0.79,-0.65 c -0.22,-0.17 -0.24,-0.43 -0.12,-0.65 0.14,-0.19 0.43,-0.28 0.67,-0.16 z"
         style="fill:#000000;fill-opacity:1;fill-rule:nonzero;stroke:none"
         id="path2060" /><path
         d="m 521.47,650.3 -0.14,-0.36 v -0.04 l -0.34,-1.06 0.05,0.12 -0.65,-1.42 0.07,0.1 -1.22,-1.97 0.02,0.05 -1.58,-2.38 v -0.02 l -2.16,-3.22 v 0 l -2.5,-3.6 v 0 l -2.88,-4.08 v 0 l -3.45,-5.01 0.02,0.05 -3.74,-5.14 v 0 l -3.89,-5.52 v -0.02 l -3.84,-5.57 0.02,0.05 -3.98,-5.33 v 0 l -3.96,-5.33 h -0.05 l -3.65,-5.23 v 0 l -3.38,-4.73 0.02,0.02 -3.33,-4.39 v 0 l -3.12,-3.98 v 0 l -2.71,-3.6 h 0.04 l -2.25,-2.93 0.02,0.02 -1.94,-2.37 v -0.03 l -1.42,-1.77 h 0.03 l -1.08,-1.32 -0.03,-0.03 -0.81,-1.05 0.04,0.07 -0.6,-0.7 0.24,0.22 -0.4,-0.29 1.48,-0.19 -0.21,0.19 0.24,-0.65 v 0.65 -0.12 l 0.14,0.82 -0.02,-0.12 0.48,1.05 c 0.09,0.15 0.02,0.36 -0.12,0.46 -0.15,0.12 -0.36,0.07 -0.48,-0.05 l -0.82,-0.84 h 0.03 l -0.6,-0.55 -0.15,-0.17 -0.33,-0.55 c -0.12,-0.19 -0.15,-0.41 -0.15,-0.6 l 0.03,-0.31 c 0.04,-0.34 0.21,-0.63 0.48,-0.82 0.28,-0.17 0.6,-0.24 0.91,-0.14 l 0.45,0.14 c 0.17,0.05 0.36,0.17 0.48,0.29 l 0.65,0.62 0.07,0.1 0.87,1.01 0.02,0.02 1.08,1.32 v 0.05 l 1.42,1.8 -0.03,-0.05 1.92,2.38 0.03,0.02 2.21,2.98 h 0.04 l 2.64,3.62 v -0.02 l 3.1,3.98 h 0.02 l 3.29,4.39 0.05,0.03 3.38,4.77 v 0 l 3.65,5.24 -0.02,-0.05 3.93,5.35 v 0 l 3.96,5.33 0.03,0.07 3.79,5.57 v 0 l 3.84,5.57 v -0.05 l 3.72,5.13 0.02,0.03 3.41,5.04 v -0.03 l 2.86,4.13 v 0 l 2.42,3.65 h 0.05 l 2.11,3.24 v 0 l 1.56,2.38 0.05,0.04 1.15,2 0.07,0.12 0.63,1.41 0.02,0.12 0.31,1.08 v 0.03 l 0.1,0.36 c 0.12,0.45 -0.17,0.93 -0.6,1.08 -0.46,0.12 -0.94,-0.12 -1.13,-0.56 z"
         style="fill:#000000;fill-opacity:1;fill-rule:nonzero;stroke:none"
         id="path2062" /></g><g
       id="g2064"><g
         id="g2066"
         clip-path="url(#clipPath2070)"><g
           id="g2072" /></g></g><g
       id="g2078"><g
         id="g2080"
         clip-path="url(#clipPath2084)"><g
           id="g2086" /></g></g><g
       id="g2096"><g
         id="g2098"
         clip-path="url(#clipPath2102)"><g
           id="g2104" /></g></g><g
       id="g2106"><g
         id="g2108"
         clip-path="url(#clipPath2112)"><g
           id="g2114" /></g></g><g
       id="g2128"><g
         id="g2130"
         clip-path="url(#clipPath2134)"><g
           id="g2136" /></g></g><g
       id="g2146"><g
         id="g2148"
         clip-path="url(#clipPath2152)"><g
           id="g2154" /></g></g><g
       id="g2156"><g
         id="g2158"
         clip-path="url(#clipPath2162)"><g
           id="g2164" /></g></g><g
       id="g2180"><g
         id="g2182"
         clip-path="url(#clipPath2186)"><g
           id="g2188" /></g></g><g
       id="g142"><g
         id="g2074"><path
           d="m 530.42,622.66 -0.91,-0.48 -0.19,-0.17 -0.34,-0.31 -0.02,-0.08 -0.48,-0.62 -0.1,-0.14 -0.19,-0.36 -0.05,-0.12 -0.14,-0.58 -0.05,-0.19 -0.05,-0.65 0.03,-0.14 0.07,-0.92 0.05,-0.16 0.26,-0.96 0.12,-0.29 0.67,-0.96 0.12,-0.12 0.82,-0.89 0.24,-0.19 1.37,-0.79 0.07,-0.05 1.37,-0.65 0.09,-0.07 1.61,-0.6 0.17,-0.03 1.8,-0.45 0.22,-0.03 2.11,-0.09 h 0.21 l 2.16,0.29 0.1,0.02 2.26,0.46 0.19,0.07 2.13,0.84 0.1,0.05 2.04,1.03 0.1,0.07 1.82,1.13 0.05,0.05 1.61,1.12 0.07,0.1 1.41,1.22 0.12,0.12 1.08,1.23 0.1,0.17 0.74,1.1 0.1,0.14 0.5,1.06 0.08,0.17 0.36,1.03 0.04,0.38 v 0.96 l -0.02,0.34 -0.24,0.84 -0.14,0.36 -0.44,0.65 c -0.12,0.21 -0.26,0.36 -0.48,0.48 l -0.84,0.45 -0.38,0.12 -1.08,0.22 -0.22,0.02 h -1.17 l -0.19,-0.02 -1.28,-0.19 -0.24,-0.05 -1.29,-0.46 -0.24,-0.09 -1.15,-0.67 -0.17,-0.1 -0.96,-0.79 -0.24,-0.24 -0.77,-1.03 -0.19,-0.34 -0.48,-1.44 -0.07,-0.34 -0.1,-1.6 v -0.34 l 0.34,-1.7 0.07,-0.32 0.79,-1.6 0.14,-0.29 1.18,-1.39 0.1,-0.12 1.39,-1.32 0.19,-0.17 1.68,-1.13 0.17,-0.1 1.97,-0.88 0.19,-0.08 2.13,-0.57 0.2,-0.03 2.32,-0.28 h 0.2 2.54 0.14 l 2.6,0.26 0.19,0.05 2.35,0.67 0.14,0.05 2.26,0.93 0.17,0.1 2.13,1.34 0.08,0.03 1.92,1.32 0.04,0.07 1.71,1.32 0.07,0.05 1.37,1.25 0.09,0.04 1.2,1.2 0.1,0.15 0.86,1.13 0.12,0.19 0.56,1.05 0.12,0.34 0.19,0.96 c 0.05,0.14 0.07,0.29 0.05,0.41 l -0.1,0.89 c 0,0.12 -0.02,0.26 -0.1,0.4 l -0.33,0.75 -0.19,0.33 -0.56,0.68 c -0.09,0.07 -0.16,0.16 -0.28,0.26 l -0.77,0.48 -0.29,0.14 -0.86,0.32 -0.32,0.04 -0.84,0.1 h -0.26 l -0.96,-0.1 -0.36,-0.09 -0.98,-0.36 -0.29,-0.17 -0.87,-0.58 -0.24,-0.21 -0.74,-0.87 -0.24,-0.33 -0.5,-1.13 c -0.08,-0.12 -0.12,-0.26 -0.12,-0.43 l -0.22,-1.51 v -0.34 l 0.22,-1.68 0.02,-0.14 0.41,-1.85 0.09,-0.29 0.92,-1.78 0.12,-0.21 1.27,-1.73 0.17,-0.19 1.7,-1.59 0.17,-0.16 2.09,-1.3 0.12,-0.1 2.32,-1.12 0.12,-0.08 2.48,-0.93 0.19,-0.05 2.57,-0.58 0.14,-0.02 2.78,-0.26 0.15,-0.05 3.05,0.09 0.16,0.03 2.79,0.45 0.09,0.03 2.55,0.67 0.12,0.02 2.37,0.84 0.22,0.12 2.04,1.16 0.14,0.12 2.14,1.6 0.19,0.15 1.61,1.68 0.07,0.09 1.15,1.42 0.12,0.17 0.8,1.32 0.09,0.21 0.41,1.16 c 0.07,0.14 0.12,0.31 0.12,0.48 v 1.03 l -0.05,0.33 -0.21,0.96 -0.15,0.39 -0.43,0.77 c -0.05,0.12 -0.14,0.24 -0.26,0.31 l -0.68,0.6 c -0.07,0.09 -0.19,0.19 -0.36,0.24 l -0.96,0.45 -0.31,0.12 -1.05,0.2 -0.15,0.02 -1.08,0.1 h -0.33 l -1.08,-0.2 -0.34,-0.09 -0.96,-0.39 -0.22,-0.12 -0.74,-0.45 c -0.17,-0.12 -0.34,-0.27 -0.46,-0.48 l -0.52,-0.87 c -0.1,-0.14 -0.2,-0.33 -0.22,-0.5 l -0.17,-1.22 -0.05,-0.32 0.1,-1.53 0.07,-0.29 0.41,-1.54 0.14,-0.28 0.89,-1.54 0.17,-0.24 1.27,-1.44 0.12,-0.1 1.49,-1.34 0.22,-0.14 1.7,-1.06 0.19,-0.1 2.04,-0.84 0.19,-0.09 2.26,-0.55 0.22,-0.05 2.44,-0.17 0.17,-0.02 2.57,0.07 H 612 l 2.54,0.31 0.22,0.02 2.59,0.68 0.12,0.04 2.47,0.94 0.2,0.1 2.25,1.22 0.15,0.12 2.01,1.49 0.07,0.09 1.76,1.52 0.14,0.14 1.39,1.61 0.15,0.21 0.96,1.64 0.09,0.16 0.63,1.54 0.04,0.22 0.36,1.39 0.05,0.36 v 1.25 c 0,0.14 0,0.31 -0.07,0.48 l -0.34,1 -0.07,0.22 -0.53,0.96 c -0.07,0.17 -0.19,0.34 -0.36,0.46 l -0.74,0.64 -0.34,0.22 -0.84,0.38 c -0.14,0.1 -0.31,0.12 -0.5,0.15 l -0.96,0.09 c -0.14,0.03 -0.29,0 -0.46,-0.02 l -0.86,-0.19 c -0.14,-0.03 -0.29,-0.07 -0.41,-0.17 l -0.79,-0.43 c -0.22,-0.12 -0.36,-0.27 -0.5,-0.48 l -0.51,-0.75 -0.19,-0.36 -0.34,-0.96 c -0.07,-0.21 -0.12,-0.45 -0.07,-0.64 l 0.12,-1.06 c 0,-0.19 0.05,-0.34 0.12,-0.48 l 0.53,-1.2 c 0.07,-0.14 0.14,-0.26 0.24,-0.38 l 1.08,-1.28 0.26,-0.24 1.61,-1.12 0.31,-0.17 2.04,-0.84 0.22,-0.05 2.14,-0.5 0.28,-0.08 2.26,-0.04 h 0.19 l 2.33,0.26 0.14,0.02 2.24,0.6 c 0.38,0.12 0.64,0.51 0.6,0.94 -0.08,0.41 -0.44,0.72 -0.84,0.72 h -2.28 0.04 l -2.32,0.1 h 0.14 l -2.21,0.31 0.17,-0.05 -2.14,0.62 0.2,-0.09 -2.02,0.91 0.26,-0.19 -1.56,1.15 0.24,-0.24 -1.03,1.25 0.24,-0.39 -0.55,1.23 0.12,-0.43 -0.12,1.03 -0.1,-0.67 0.36,0.96 -0.16,-0.34 0.5,0.77 -0.48,-0.48 0.74,0.48 -0.4,-0.17 0.84,0.22 -0.48,-0.08 0.98,-0.04 -0.5,0.12 0.84,-0.41 -0.34,0.21 0.79,-0.62 -0.36,0.41 0.51,-0.96 -0.1,0.24 0.34,-1.01 -0.08,0.46 v -1.25 l 0.05,0.33 -0.33,-1.41 0.04,0.21 -0.6,-1.53 0.1,0.19 -0.96,-1.58 0.14,0.16 -1.39,-1.6 0.15,0.14 -1.76,-1.54 0.1,0.1 -2.02,-1.54 0.2,0.12 -2.26,-1.24 0.22,0.07 -2.5,-0.91 0.14,0.02 -2.56,-0.67 0.21,0.05 -2.57,-0.32 h 0.12 l -2.56,-0.04 0.14,-0.05 -2.42,0.21 0.24,-0.02 -2.26,0.58 0.22,-0.1 -2.04,0.86 0.21,-0.12 -1.73,1.06 0.2,-0.14 -1.52,1.34 0.12,-0.12 -1.24,1.42 0.16,-0.24 -0.88,1.51 0.14,-0.29 -0.41,1.49 0.03,-0.31 -0.08,1.51 -0.02,-0.29 0.22,1.22 -0.22,-0.52 0.55,0.88 -0.45,-0.48 0.72,0.46 -0.22,-0.12 0.96,0.41 -0.29,-0.07 1.08,0.14 h -0.36 l 1.08,-0.1 -0.17,0.03 1.06,-0.19 -0.34,0.12 0.96,-0.46 -0.36,0.24 0.68,-0.6 -0.27,0.34 0.41,-0.72 -0.14,0.38 0.24,-0.98 -0.08,0.31 0.05,-1.03 0.05,0.5 -0.38,-1.15 0.09,0.21 -0.77,-1.34 0.12,0.22 -1.15,-1.44 0.07,0.07 -1.6,-1.71 0.14,0.15 -2.09,-1.61 0.15,0.12 -2.04,-1.18 0.21,0.1 -2.37,-0.84 0.12,0.02 -2.57,-0.64 0.12,0.02 -2.79,-0.5 0.22,0.02 -3,-0.1 h 0.17 l -2.79,0.27 h 0.15 l -2.55,0.55 0.22,-0.02 -2.5,0.91 0.12,-0.05 -2.32,1.18 0.12,-0.1 -2.04,1.32 0.19,-0.19 -1.71,1.63 0.2,-0.19 -1.3,1.75 0.14,-0.22 -0.88,1.8 0.12,-0.28 -0.44,1.8 0.03,-0.17 -0.19,1.73 v -0.34 l 0.19,1.54 -0.12,-0.44 0.55,1.16 -0.24,-0.34 0.77,0.84 -0.24,-0.22 0.84,0.6 -0.29,-0.14 0.98,0.36 -0.38,-0.1 0.96,0.1 h -0.24 l 0.84,-0.1 -0.31,0.08 0.84,-0.29 -0.29,0.17 0.72,-0.48 -0.31,0.26 0.55,-0.67 -0.19,0.33 0.33,-0.76 -0.12,0.4 0.1,-0.84 0.02,0.44 -0.21,-0.96 0.12,0.31 -0.51,-1.03 0.12,0.19 -0.84,-1.15 0.1,0.14 -1.18,-1.22 0.08,0.04 -1.4,-1.24 0.1,0.04 -1.7,-1.32 0.04,0.08 -1.92,-1.37 0.03,0.05 -2.11,-1.32 0.19,0.07 -2.23,-0.91 0.14,0.04 -2.35,-0.69 0.21,0.05 -2.56,-0.29 h 0.14 -2.54 l 0.14,-0.03 -2.38,0.32 0.2,-0.05 -2.14,0.55 0.17,-0.07 -1.92,0.89 0.19,-0.1 -1.68,1.13 0.17,-0.15 -1.39,1.32 0.12,-0.12 -1.18,1.44 0.17,-0.26 -0.77,1.61 0.12,-0.31 -0.34,1.7 0.03,-0.34 0.12,1.64 -0.07,-0.36 0.5,1.39 -0.14,-0.31 0.74,1.03 -0.24,-0.24 0.96,0.77 -0.14,-0.1 1.15,0.7 -0.24,-0.12 1.32,0.43 -0.24,-0.03 1.29,0.2 h -0.21 1.17 l -0.24,0.02 1.08,-0.22 -0.38,0.12 0.86,-0.45 -0.48,0.45 0.44,-0.69 -0.17,0.36 0.24,-0.84 -0.05,0.33 v -0.96 l 0.05,0.39 -0.31,-1.01 0.04,0.14 -0.5,-1 0.1,0.14 -0.77,-1.15 0.09,0.12 -1.08,-1.25 0.12,0.12 -1.41,-1.27 0.12,0.09 -1.59,-1.12 0.08,0.04 -1.8,-1.12 0.07,0.04 -2.04,-1.05 0.12,0.05 -2.11,-0.84 0.16,0.04 -2.2,-0.5 0.07,0.02 -2.16,-0.28 h 0.21 l -2.13,0.07 0.21,-0.03 -1.82,0.36 0.14,-0.02 -1.65,0.53 0.12,-0.05 -1.42,0.62 0.07,-0.02 -1.41,0.72 0.24,-0.14 -0.87,0.79 0.15,-0.15 -0.65,0.96 0.12,-0.24 -0.34,0.94 0.03,-0.19 -0.12,0.89 v -0.1 l -0.03,0.65 -0.02,-0.17 0.07,0.58 v 0 l 0.05,0.4 -0.1,-0.28 0.36,0.64 -0.07,-0.09 0.31,0.41 -0.09,-0.1 0.74,0.7 c 0.24,0.19 0.29,0.52 0.1,0.76 -0.15,0.24 -0.48,0.34 -0.75,0.2 z"
           style="fill:#000000;fill-opacity:1;fill-rule:nonzero;stroke:none"
           id="path2076" /></g><g
         id="g2122"><path
           d="m 510.12,662.42 -0.22,-0.38 c -0.09,-0.17 -0.12,-0.36 -0.09,-0.58 l 0.07,-0.19 v 0.03 l 0.07,-0.32 0.12,-0.28 0.1,-0.12 v 0 l 0.19,-0.22 0.26,-0.24 0.39,-0.24 0.09,-0.05 0.53,-0.21 0.24,-0.1 0.77,-0.12 0.14,-0.02 h 0.84 0.1 l 1.08,0.04 0.19,0.05 1.18,0.27 0.14,0.04 1.3,0.56 0.19,0.09 1.32,0.84 0.12,0.07 1.39,1.2 0.07,0.1 1.42,1.42 0.02,0.02 1.37,1.51 0.07,0.03 1.37,1.6 0.05,0.05 1.27,1.61 v 0.02 l 1.3,1.76 0.07,0.09 1.08,1.75 0.02,0.1 0.99,1.9 0.02,0.09 0.77,1.83 v 0.02 l 0.65,1.85 0.02,0.12 0.46,1.68 0.02,0.12 0.19,1.44 0.03,0.05 0.12,1.32 v 0.12 1.22 l -0.03,0.24 -0.19,1.06 -0.05,0.24 -0.33,0.84 -0.1,0.14 -0.41,0.79 c -0.07,0.15 -0.14,0.27 -0.26,0.36 l -0.55,0.46 -0.29,0.19 -0.65,0.29 -0.36,0.12 -0.74,0.07 c -0.17,0.05 -0.36,0.05 -0.53,-0.02 l -0.72,-0.17 -0.24,-0.1 -0.77,-0.38 c -0.12,-0.07 -0.24,-0.12 -0.31,-0.24 l -0.79,-0.77 -0.17,-0.26 -0.67,-1.13 -0.12,-0.24 -0.51,-1.54 v -0.09 l -0.45,-1.71 -0.03,-0.14 -0.21,-1.73 v -0.17 -1.68 l 0.02,-0.26 0.31,-1.54 0.05,-0.24 0.55,-1.32 0.17,-0.31 0.84,-1.1 0.19,-0.22 1.08,-0.94 0.22,-0.14 1.39,-0.77 0.24,-0.09 1.63,-0.48 0.22,-0.08 1.7,-0.19 h 0.27 l 1.92,0.19 h 0.14 l 1.85,0.41 0.14,0.05 2.04,0.72 0.22,0.1 2.14,1.12 0.12,0.1 2.23,1.63 0.07,0.03 2.21,1.8 0.12,0.09 2.16,2.07 0.05,0.02 1.92,1.99 0.04,0.1 1.59,1.87 0.07,0.1 1.3,1.82 0.04,0.07 1.08,1.83 0.03,0.09 0.89,1.68 0.04,0.17 0.56,1.63 0.04,0.17 0.32,1.63 0.02,0.15 0.12,1.41 v 0.1 1.25 l -0.02,0.24 -0.2,1.1 -0.12,0.34 -0.4,0.96 c -0.08,0.14 -0.17,0.31 -0.29,0.43 l -0.65,0.65 c -0.1,0.09 -0.22,0.19 -0.36,0.24 l -0.72,0.36 -0.34,0.12 -0.96,0.21 c -0.16,0.03 -0.38,0.03 -0.57,0 l -0.96,-0.21 -0.24,-0.05 -1.08,-0.46 c -0.15,-0.07 -0.27,-0.14 -0.39,-0.26 l -0.96,-0.89 -0.21,-0.24 -0.84,-1.2 -0.03,-0.07 -0.76,-1.25 -0.1,-0.24 -0.5,-1.32 -0.1,-0.26 -0.22,-1.42 -0.02,-0.19 v -1.44 l 0.02,-0.29 0.34,-1.51 0.1,-0.29 0.64,-1.39 0.1,-0.19 0.84,-1.32 0.22,-0.24 1.2,-1.13 0.07,-0.1 1.29,-0.98 0.32,-0.17 1.36,-0.55 0.27,-0.1 1.51,-0.26 0.38,-0.05 1.8,0.22 0.2,0.02 1.99,0.48 0.12,0.05 2.16,0.74 0.19,0.05 2.26,1.18 0.07,0.07 2.13,1.32 0.1,0.05 1.94,1.53 0.12,0.1 1.71,1.73 0.09,0.09 1.59,1.9 0.09,0.12 1.28,1.87 0.02,0.05 1.08,1.7 0.1,0.17 0.74,1.73 0.02,0.05 0.56,1.44 0.02,0.12 0.36,1.29 0.05,0.36 v 1.25 0.17 l -0.12,1.03 -0.03,0.19 -0.21,0.94 c -0.05,0.12 -0.07,0.26 -0.17,0.38 l -0.55,0.87 -0.17,0.24 -0.62,0.67 c -0.1,0.12 -0.24,0.19 -0.41,0.29 l -0.75,0.36 -0.28,0.12 -0.84,0.19 c -0.17,0.02 -0.32,0.05 -0.46,0.02 l -0.86,-0.07 c -0.22,-0.02 -0.46,-0.12 -0.65,-0.24 l -0.75,-0.48 -0.21,-0.17 -0.75,-0.79 c -0.12,-0.12 -0.24,-0.24 -0.28,-0.38 l -0.53,-1.13 -0.07,-0.29 -0.34,-1.39 -0.02,-0.34 v -1.7 l 0.02,-0.29 0.34,-1.7 0.12,-0.29 0.72,-1.63 0.07,-0.15 1.01,-1.53 0.14,-0.22 1.18,-1.22 0.24,-0.22 1.48,-0.96 0.32,-0.14 1.92,-0.65 0.31,-0.07 2.25,-0.22 h 0.27 l 2.47,0.29 0.29,0.05 2.57,0.84 0.26,0.12 2.45,1.44 0.17,0.09 2.47,1.9 0.07,0.05 2.21,1.89 0.07,0.03 2.26,2.06 0.14,0.19 1.8,2.28 0.12,0.17 1.61,2.74 0.09,0.21 1.06,2.67 0.02,0.07 0.77,2.18 0.05,0.27 0.26,1.8 v 0.38 l -0.16,1.42 c -0.03,0.24 -0.12,0.5 -0.32,0.69 l -0.64,0.75 c -0.2,0.21 -0.46,0.36 -0.77,0.4 l -0.65,0.05 c -0.24,0.03 -0.46,-0.02 -0.62,-0.14 l -0.6,-0.43 c -0.24,-0.15 -0.36,-0.46 -0.29,-0.75 0.07,-0.26 0.33,-0.48 0.6,-0.5 l 0.72,-0.05 -0.53,0.24 0.5,-0.43 -0.33,0.43 0.36,-0.91 -0.07,0.43 0.04,-1.44 v 0.34 l -0.33,-1.8 0.05,0.21 -0.77,-2.18 v 0.05 l -1.03,-2.67 0.07,0.17 -1.59,-2.71 0.1,0.14 -1.8,-2.28 0.14,0.15 -2.25,-2.07 0.07,0.03 -2.26,-1.9 0.08,0.05 -2.48,-1.9 0.15,0.1 -2.45,-1.44 0.26,0.12 -2.54,-0.89 0.29,0.07 -2.47,-0.31 0.28,0.05 -2.25,0.17 0.33,-0.05 -1.92,0.62 0.32,-0.14 -1.52,0.96 0.24,-0.22 -1.17,1.23 0.19,-0.22 -0.96,1.54 0.1,-0.17 -0.72,1.61 0.07,-0.29 -0.31,1.7 0.02,-0.26 v 1.7 l -0.07,-0.33 0.36,1.44 -0.07,-0.24 0.5,1.1 -0.26,-0.41 0.74,0.77 -0.22,-0.17 0.72,0.48 -0.6,-0.21 0.84,0.09 -0.48,0.03 0.87,-0.22 -0.29,0.1 0.77,-0.36 -0.41,0.31 0.62,-0.67 -0.16,0.24 0.52,-0.87 -0.14,0.39 0.22,-0.94 -0.05,0.19 0.12,-1.05 v 0.14 -1.25 l 0.07,0.34 -0.34,-1.3 0.03,0.12 -0.53,-1.44 0.02,0.05 -0.72,-1.68 0.1,0.19 -1.08,-1.7 0.02,0.02 -1.29,-1.89 0.09,0.12 -1.58,-1.92 0.1,0.09 -1.76,-1.7 0.15,0.07 -1.95,-1.49 0.12,0.1 -2.13,-1.37 0.09,0.07 -2.2,-1.17 0.16,0.09 -2.16,-0.74 0.12,0.02 -2.01,-0.48 0.19,0.03 -1.82,-0.17 0.38,-0.05 -1.51,0.31 0.29,-0.09 -1.42,0.57 0.29,-0.19 -1.25,0.96 0.12,-0.07 -1.2,1.13 0.22,-0.24 -0.84,1.32 0.04,-0.15 -0.62,1.42 0.1,-0.31 -0.32,1.53 0.03,-0.26 v 1.44 l -0.03,-0.22 0.24,1.42 -0.09,-0.29 0.53,1.32 -0.1,-0.19 0.74,1.22 -0.02,-0.07 0.84,1.25 -0.19,-0.24 0.96,0.86 -0.39,-0.24 1.08,0.46 -0.26,-0.07 0.98,0.19 h -0.57 l 1.01,-0.19 -0.36,0.09 0.74,-0.36 -0.36,0.27 0.65,-0.65 -0.27,0.41 0.44,-0.96 -0.1,0.31 0.17,-1.15 v 0.24 -1.25 0.12 l -0.12,-1.42 0.05,0.15 -0.34,-1.61 0.05,0.14 -0.53,-1.58 0.05,0.14 -0.84,-1.68 0.07,0.1 -1.08,-1.85 0.05,0.1 -1.27,-1.8 0.07,0.07 -1.59,-1.9 0.08,0.1 -1.92,-2.02 0.02,0.03 -2.16,-2.09 0.1,0.07 -2.24,-1.8 0.03,0.07 -2.21,-1.63 0.12,0.1 -2.11,-1.18 0.19,0.07 -2.04,-0.72 0.14,0.03 -1.8,-0.39 0.15,0.03 -1.95,-0.22 h 0.29 l -1.7,0.19 0.21,-0.02 -1.63,0.48 0.29,-0.12 -1.39,0.74 0.21,-0.14 -1.08,0.91 0.17,-0.17 -0.84,1.13 0.17,-0.29 -0.53,1.35 0.07,-0.24 -0.33,1.53 0.02,-0.24 v 1.68 -0.14 l 0.24,1.7 -0.02,-0.14 0.43,1.7 -0.05,-0.09 0.53,1.53 -0.12,-0.24 0.65,1.13 -0.22,-0.26 0.79,0.74 -0.33,-0.24 0.72,0.41 -0.24,-0.1 0.74,0.17 -0.53,-0.02 0.77,-0.12 -0.36,0.12 0.65,-0.29 -0.31,0.17 0.55,-0.46 -0.31,0.36 0.45,-0.74 -0.07,0.14 0.34,-0.86 -0.05,0.24 0.19,-1.01 -0.02,0.19 v -1.22 0.09 l -0.1,-1.32 v 0.05 l -0.19,-1.39 0.02,0.12 -0.43,-1.68 0.05,0.12 -0.65,-1.85 0.05,0.07 -0.77,-1.82 0.05,0.07 -0.96,-1.9 0.05,0.1 -1.08,-1.8 0.07,0.1 -1.27,-1.71 v 0.03 l -1.25,-1.64 0.02,0.05 -1.39,-1.63 0.05,0.02 -1.39,-1.48 v 0 l -1.37,-1.44 0.07,0.04 -1.37,-1.22 0.12,0.1 -1.29,-0.87 0.14,0.07 -1.25,-0.6 0.15,0.08 -1.13,-0.34 0.17,0.02 -1.06,-0.12 0.07,0.05 -0.84,-0.05 h 0.1 l -0.79,0.05 0.24,-0.05 -0.58,0.17 h 0.07 l -0.43,0.15 0.24,-0.12 -0.24,0.14 -0.19,0.14 -0.12,0.05 0.41,-0.36 -0.15,0.24 v 0.03 l -0.12,0.16 0.12,-0.28 -0.07,0.45 c -0.02,0.27 -0.24,0.48 -0.5,0.51 -0.27,0.04 -0.53,-0.08 -0.65,-0.32 z"
           style="fill:#000000;fill-opacity:1;fill-rule:nonzero;stroke:none"
           id="path2124" /><path
           d="m 527.78,625.32 0.39,0.36 v 0 l 0.21,0.17 -0.09,-0.05 0.26,0.14 -0.74,0.03 0.07,-0.05 -0.19,0.17 0.09,-0.07 -0.09,0.88 -0.12,-0.26 -0.05,-0.12 -0.22,-0.67 0.1,0.19 -0.55,-0.94 h -0.03 l -0.86,-1.53 v -0.03 l -1.2,-2.25 v 0.05 l -1.61,-2.81 0.05,0.07 -2.16,-3.22 v 0 l -2.81,-4.17 v 0 l -2.95,-4.35 v 0.03 l -3.24,-4.56 v 0 l -3.55,-5.04 0.02,0.05 -3.65,-4.85 h 0.03 l -3.58,-4.49 -0.02,-0.07 -3.12,-4.37 v -0.05 l -2.69,-4.08 v 0 l -2.16,-3.41 v 0.03 l -1.9,-2.86 v 0 l -1.41,-2.09 0.02,0.03 -1.2,-1.71 -0.05,-0.09 -0.74,-1.35 0.02,0.03 -0.55,-0.96 -0.12,-0.24 -0.17,-0.58 c -0.19,-0.55 0.15,-1.2 0.72,-1.39 0.58,-0.19 1.2,0.12 1.44,0.67 l 0.15,0.43 v -0.02 l 0.31,0.72 v -0.05 l 0.43,1.06 c 0.12,0.26 0,0.6 -0.24,0.74 -0.24,0.19 -0.6,0.12 -0.77,-0.07 l -0.79,-0.84 v 0 l -0.5,-0.55 0.26,0.21 -0.41,-0.21 c -0.45,-0.22 -0.69,-0.7 -0.62,-1.18 0.05,-0.5 0.43,-0.89 0.91,-0.96 0.53,-0.07 1.01,0.17 1.2,0.6 l 0.29,0.55 -0.05,-0.07 0.55,0.94 0.03,0.02 0.72,1.32 -0.05,-0.07 1.2,1.7 v 0 l 1.37,2.09 v 0 l 1.89,2.88 0.03,0.05 2.13,3.38 v 0 l 2.64,4.08 v -0.02 l 3.05,4.39 -0.02,-0.05 3.55,4.56 v 0.03 l 3.62,4.87 v 0.02 l 3.51,5.04 v 0 l 3.21,4.56 v 0.03 l 2.98,4.39 v 0 l 2.76,4.18 v 0 l 2.16,3.24 0.02,0.04 1.59,2.79 v 0.05 l 1.17,2.28 v -0.05 l 0.84,1.56 v -0.03 l 0.51,0.96 0.09,0.22 0.17,0.7 v -0.08 l 0.1,0.32 c 0.12,0.4 -0.05,0.86 -0.46,1.08 -0.41,0.16 -0.86,0.04 -1.13,-0.29 l -0.09,-0.12 0.19,0.19 -0.07,-0.07 -0.12,-0.12 -0.17,-0.19 v 0 l -0.19,-0.22 -0.1,-0.12 -0.26,-0.5 c -0.1,-0.22 -0.03,-0.48 0.14,-0.65 0.22,-0.15 0.48,-0.12 0.67,0.07 z"
           style="fill:#000000;fill-opacity:1;fill-rule:nonzero;stroke:none"
           id="path2126" /></g><path
         d="m 514.49,576.65 -0.48,0.31 c -0.15,0.12 -0.39,0.17 -0.6,0.12 l -0.22,-0.07 0.65,-0.1 -0.19,0.1 c -0.27,0.19 -0.6,0.19 -0.89,0.02 l -0.12,-0.05 -0.22,-0.14 -0.14,-0.17 c -0.1,-0.07 -0.19,-0.19 -0.24,-0.36 l -0.1,-0.26 -0.02,-0.03 -0.12,-0.43 -0.05,-0.12 -0.12,-0.65 -0.02,-0.19 v -1.13 -0.12 l 0.24,-1.75 v -0.02 l 0.31,-1.97 0.02,-0.1 0.51,-2.18 0.02,-0.1 0.84,-2.3 0.05,-0.07 1.08,-2.45 0.02,-0.1 1.25,-2.28 0.07,-0.09 1.37,-2.02 0.07,-0.07 1.49,-1.8 0.12,-0.17 1.73,-1.39 0.19,-0.17 1.92,-0.98 0.24,-0.1 2.04,-0.48 0.29,-0.02 1.99,-0.03 0.24,0.03 2.04,0.36 0.24,0.07 1.8,0.74 0.1,0.03 1.8,0.86 0.14,0.1 1.54,1.03 0.09,0.05 1.28,1.05 0.12,0.12 0.98,1.06 0.05,0.05 0.77,0.96 0.12,0.21 0.4,0.84 0.1,0.17 0.24,0.79 c 0.05,0.15 0.05,0.36 0.05,0.53 l -0.12,0.77 -0.07,0.38 -0.32,0.65 c -0.09,0.19 -0.24,0.36 -0.4,0.48 l -0.65,0.48 c -0.12,0.1 -0.24,0.17 -0.36,0.22 l -0.87,0.26 -0.28,0.07 -1.11,0.1 h -0.29 l -1.29,-0.19 -0.05,-0.03 -1.3,-0.26 -0.12,-0.07 -1.39,-0.46 -0.31,-0.12 -1.18,-0.77 -0.21,-0.19 -1.06,-1.03 -0.24,-0.31 -0.84,-1.54 -0.12,-0.29 -0.53,-2.18 -0.02,-0.19 -0.22,-2.4 v -0.24 l 0.22,-2.45 0.02,-0.17 0.53,-2.45 0.05,-0.14 0.84,-2.57 0.07,-0.21 1.3,-2.36 0.12,-0.19 1.63,-2.09 0.05,-0.09 1.58,-1.71 0.17,-0.12 1.82,-1.41 0.22,-0.15 2.04,-1.05 0.26,-0.1 2.24,-0.57 0.19,-0.03 2.49,-0.21 h 0.15 l 2.45,0.09 h 0.19 l 2.28,0.48 0.12,0.03 2.13,0.67 0.12,0.02 2.12,0.87 0.07,0.04 1.92,0.92 0.07,0.07 1.73,0.96 0.12,0.05 1.49,1.05 h 0.02 l 1.3,0.94 0.12,0.09 1.03,0.96 0.17,0.15 0.74,0.93 0.22,0.29 0.4,0.96 0.1,0.27 0.22,0.93 c 0.02,0.17 0.02,0.29 0.02,0.43 l -0.07,0.84 -0.05,0.27 -0.24,0.79 -0.14,0.31 -0.44,0.7 c -0.09,0.14 -0.21,0.31 -0.36,0.38 l -0.64,0.48 c -0.12,0.1 -0.29,0.17 -0.44,0.19 l -0.74,0.22 c -0.14,0.05 -0.34,0.05 -0.5,0.05 l -0.84,-0.1 c -0.17,-0.02 -0.34,-0.05 -0.46,-0.12 l -0.86,-0.41 -0.32,-0.19 -0.76,-0.65 -0.24,-0.26 -0.72,-1.06 -0.2,-0.33 -0.52,-1.54 -0.05,-0.21 -0.31,-1.71 v -0.17 l -0.12,-1.99 v -0.14 l 0.12,-2.11 0.02,-0.17 0.41,-2.19 0.07,-0.21 0.72,-2.02 0.12,-0.24 1.08,-1.77 0.12,-0.15 1.37,-1.73 0.21,-0.21 1.83,-1.42 0.12,-0.09 2.13,-1.35 0.2,-0.09 2.16,-0.92 0.12,-0.07 2.23,-0.65 0.19,-0.07 2.38,-0.36 0.19,-0.02 h 2.47 0.1 l 2.44,0.21 h 0.12 l 2.6,0.44 0.14,0.04 2.33,0.68 0.17,0.04 2.11,0.84 0.19,0.12 1.92,1.11 0.1,0.05 1.68,1.12 0.07,0.05 1.39,1.06 0.1,0.05 1.15,1.05 0.07,0.07 0.86,0.84 0.08,0.08 0.64,0.76 0.22,0.29 0.34,0.67 0.12,0.36 0.12,0.68 c 0.04,0.24 0.02,0.52 -0.08,0.79 l -0.24,0.57 c -0.04,0.15 -0.12,0.27 -0.24,0.39 l -0.28,0.38 c -0.17,0.19 -0.36,0.34 -0.6,0.43 l -0.56,0.2 c -0.16,0.07 -0.33,0.09 -0.5,0.09 h -0.86 c -0.12,0 -0.29,-0.02 -0.41,-0.05 l -0.96,-0.28 c -0.15,-0.05 -0.29,-0.12 -0.41,-0.2 l -0.84,-0.55 -0.31,-0.26 -0.84,-0.94 -0.19,-0.29 -0.68,-1.2 c -0.04,-0.12 -0.12,-0.28 -0.14,-0.43 l -0.31,-1.53 -0.03,-0.29 v -1.68 l 0.03,-0.36 0.43,-1.8 0.02,-0.12 0.6,-1.99 0.1,-0.24 0.96,-1.88 0.14,-0.21 1.4,-1.92 0.16,-0.22 1.71,-1.61 0.29,-0.21 2.23,-1.32 0.31,-0.15 2.45,-0.84 0.41,-0.07 2.66,-0.17 h 0.38 l 2.88,0.56 0.22,0.07 3.07,1.17 0.31,0.17 3.05,2.35 c 0.39,0.29 0.51,0.89 0.19,1.32 -0.26,0.44 -0.84,0.56 -1.27,0.32 l -3.36,-1.76 0.24,0.08 -3.12,-0.92 0.19,0.03 -2.9,-0.39 h 0.34 l -2.69,0.2 0.41,-0.05 -2.48,0.84 0.27,-0.12 -2.23,1.32 0.26,-0.19 -1.75,1.63 0.21,-0.24 -1.41,1.92 0.17,-0.22 -1.01,1.9 0.09,-0.24 -0.62,1.97 0.02,-0.08 -0.4,1.8 0.02,-0.33 v 1.68 l -0.02,-0.31 0.28,1.53 -0.12,-0.38 0.63,1.22 -0.17,-0.26 0.84,0.96 -0.31,-0.27 0.84,0.56 -0.39,-0.17 0.96,0.29 -0.4,-0.05 h 0.86 l -0.5,0.05 0.52,-0.17 -0.6,0.41 0.32,-0.36 -0.24,0.4 0.24,-0.57 -0.1,0.74 -0.1,-0.65 0.12,0.39 -0.33,-0.67 0.21,0.31 -0.62,-0.75 0.05,0.08 -0.84,-0.87 0.07,0.07 -1.18,-1.05 0.08,0.09 -1.4,-1.05 0.08,0.02 -1.68,-1.13 0.04,0.05 -1.92,-1.13 0.2,0.08 -2.14,-0.87 0.14,0.07 -2.37,-0.69 0.17,0.02 -2.6,-0.45 h 0.12 l -2.42,-0.17 h 0.12 -2.47 l 0.21,-0.03 -2.37,0.36 0.21,-0.04 -2.25,0.67 0.17,-0.03 -2.16,0.92 0.16,-0.08 -2.13,1.32 0.12,-0.09 -1.8,1.44 0.21,-0.24 -1.36,1.73 0.07,-0.15 -1.08,1.78 0.12,-0.22 -0.72,2.02 0.07,-0.22 -0.46,2.16 0.03,-0.17 -0.07,2.09 v -0.14 l 0.12,1.97 -0.05,-0.17 0.31,1.7 -0.07,-0.21 0.55,1.53 -0.14,-0.31 0.72,1.03 -0.24,-0.26 0.76,0.67 -0.28,-0.22 0.84,0.39 -0.46,-0.12 0.84,0.09 -0.48,0.03 0.72,-0.17 -0.43,0.17 0.67,-0.46 -0.38,0.43 0.4,-0.69 -0.14,0.36 0.24,-0.77 -0.07,0.24 0.09,-0.84 0.03,0.41 -0.19,-0.94 0.07,0.29 -0.41,-1.01 0.22,0.34 -0.8,-0.94 0.15,0.12 -1.03,-0.96 0.12,0.12 -1.3,-0.96 v 0 l -1.46,-1.05 0.12,0.09 -1.76,-0.96 0.1,0.03 -1.92,-0.96 0.05,0.04 -2.11,-0.88 0.12,0.04 -2.14,-0.64 0.12,0.04 -2.28,-0.52 0.24,0.04 -2.42,-0.09 h 0.14 l -2.5,0.21 0.22,-0.07 -2.23,0.58 0.29,-0.1 -2.04,1.06 0.19,-0.15 -1.83,1.44 0.15,-0.16 -1.59,1.72 0.1,-0.09 -1.63,2.09 0.12,-0.17 -1.25,2.37 0.07,-0.21 -0.86,2.54 0.02,-0.12 -0.53,2.47 0.03,-0.14 -0.22,2.45 v -0.24 l 0.22,2.37 -0.03,-0.19 0.53,2.21 -0.12,-0.34 0.89,1.54 -0.24,-0.29 1.03,1.03 -0.19,-0.14 1.2,0.74 -0.31,-0.14 1.39,0.43 -0.12,-0.02 1.27,0.31 -0.07,-0.05 1.25,0.22 h -0.29 l 1.08,-0.1 -0.31,0.07 0.84,-0.31 -0.36,0.22 0.67,-0.48 -0.38,0.45 0.31,-0.62 -0.12,0.36 0.12,-0.79 0.05,0.57 -0.22,-0.79 0.05,0.22 -0.39,-0.84 0.12,0.19 -0.72,-0.96 0.08,0.07 -0.99,-1.03 0.12,0.12 -1.25,-1.06 0.1,0.05 -1.51,-1.01 0.14,0.1 -1.82,-0.89 0.09,0.05 -1.82,-0.77 0.24,0.07 -2.04,-0.43 0.19,0.05 -1.99,-0.05 0.26,-0.02 -2.04,0.48 0.27,-0.1 -1.95,0.96 0.22,-0.14 -1.73,1.41 0.17,-0.14 -1.51,1.75 0.07,-0.05 -1.42,1.97 0.05,-0.07 -1.27,2.28 0.05,-0.1 -1.08,2.45 v -0.05 l -0.84,2.28 0.02,-0.12 -0.55,2.19 0.02,-0.1 -0.33,1.99 v -0.02 l -0.22,1.73 v -0.15 1.13 l -0.02,-0.14 0.12,0.62 -0.03,-0.05 0.12,0.39 v 0.02 l 0.05,0.31 -0.05,-0.19 0.1,0.22 -0.07,-0.12 0.09,0.14 -0.33,-0.31 0.19,0.07 h -0.05 l 0.22,0.12 -0.48,-0.12 0.55,-0.05 c 0.29,-0.02 0.53,0.12 0.65,0.39 0.09,0.26 0,0.57 -0.24,0.72 z"
         style="fill:#000000;fill-opacity:1;fill-rule:nonzero;stroke:none"
         id="path2144" /><g
         id="g2166"><path
           d="m 351.05,544.63 -0.51,-0.26 -0.28,-0.22 -0.12,-0.17 -0.1,-0.19 -0.26,-0.67 v 0.02 l -0.15,-0.36 -0.07,-0.19 -0.1,-0.69 -0.02,-0.12 -0.02,-0.84 v 0 l -0.03,-1.13 v -0.07 l 0.05,-1.25 v -0.15 l 0.22,-1.22 0.04,-0.14 0.41,-1.25 0.05,-0.1 0.5,-1.17 0.08,-0.12 0.62,-0.96 0.12,-0.15 0.86,-0.96 0.12,-0.12 0.84,-0.69 0.12,-0.08 0.96,-0.6 0.12,-0.04 1.06,-0.48 0.26,-0.08 1.18,-0.21 0.29,-0.03 1.27,0.08 c 0.17,0.02 0.34,0.07 0.48,0.14 l 1.27,0.67 0.12,0.07 1.39,0.92 0.15,0.12 1.49,1.32 0.09,0.09 1.39,1.51 0.05,0.08 1.3,1.6 0.07,0.12 1.08,1.68 0.05,0.1 0.84,1.63 0.02,0.03 0.65,1.44 0.1,0.21 0.31,1.35 0.02,0.28 v 1.13 l -0.02,0.24 -0.19,0.96 c -0.03,0.17 -0.1,0.31 -0.2,0.46 l -0.55,0.77 -0.26,0.28 -0.77,0.58 c -0.12,0.07 -0.24,0.14 -0.36,0.19 l -0.98,0.29 -0.34,0.02 -1.06,0.03 -0.31,-0.05 -1.08,-0.26 -0.24,-0.1 -0.96,-0.48 -0.14,-0.1 -0.96,-0.64 c -0.15,-0.08 -0.27,-0.2 -0.36,-0.36 l -0.63,-0.96 -0.12,-0.24 -0.43,-1.13 -0.07,-0.22 -0.22,-1.34 v -0.39 l 0.22,-1.53 0.07,-0.22 0.51,-1.51 0.16,-0.34 0.96,-1.32 0.27,-0.28 1.39,-1.04 0.22,-0.12 1.63,-0.76 0.29,-0.12 1.92,-0.36 0.24,-0.03 h 2.01 l 0.27,0.03 2.16,0.48 0.19,0.07 2.35,0.93 0.12,0.05 2.42,1.23 0.1,0.07 2.59,1.61 0.1,0.04 2.47,1.9 0.1,0.1 2.35,2.16 0.07,0.09 2.14,2.35 0.07,0.1 1.82,2.52 h 0.03 l 1.6,2.26 0.03,0.04 1.27,2 0.05,0.07 0.96,1.73 0.07,0.09 0.6,1.44 0.1,0.24 0.24,1.15 0.02,0.24 v 0.84 c 0,0.22 -0.05,0.41 -0.14,0.6 l -0.29,0.6 c -0.12,0.24 -0.31,0.46 -0.55,0.58 l -0.56,0.29 c -0.16,0.09 -0.4,0.14 -0.62,0.14 h -0.84 c -0.14,0 -0.29,0 -0.41,-0.05 l -0.86,-0.28 -0.17,-0.08 -0.96,-0.48 -0.29,-0.19 -0.86,-0.77 -0.22,-0.19 -0.72,-0.96 -0.14,-0.24 -0.53,-1.13 -0.12,-0.33 -0.19,-1.13 c -0.03,-0.17 -0.03,-0.31 0,-0.46 l 0.19,-1.15 0.12,-0.36 0.55,-1.05 0.17,-0.27 0.86,-0.96 0.24,-0.24 1.08,-0.72 0.34,-0.17 1.54,-0.48 0.24,-0.07 1.94,-0.19 h 0.24 l 2.04,0.19 0.17,0.05 2.25,0.55 0.2,0.07 2.25,0.94 0.15,0.07 2.23,1.25 0.07,0.02 2.23,1.42 0.07,0.05 2.12,1.53 0.07,0.05 1.94,1.63 0.05,0.05 1.73,1.61 0.09,0.12 1.4,1.7 0.12,0.12 1.05,1.76 0.1,0.16 0.77,1.78 0.09,0.31 0.31,1.8 0.03,0.24 v 1.51 l -0.05,0.29 -0.29,1.35 -0.09,0.26 -0.53,1.15 -0.24,0.34 -0.77,0.86 -0.24,0.22 -0.84,0.57 -0.34,0.17 -0.86,0.27 c -0.12,0.04 -0.26,0.07 -0.41,0.07 h -0.96 l -0.38,-0.05 -0.96,-0.29 -0.29,-0.12 -0.86,-0.48 c -0.17,-0.09 -0.29,-0.21 -0.41,-0.36 l -0.65,-0.84 c -0.12,-0.14 -0.19,-0.31 -0.24,-0.48 l -0.31,-1.13 -0.05,-0.36 v -1.44 l 0.05,-0.31 0.31,-1.39 0.05,-0.19 0.55,-1.42 0.12,-0.29 0.98,-1.41 0.2,-0.24 1.27,-1.18 0.31,-0.19 1.75,-0.86 0.17,-0.08 2.02,-0.64 0.28,-0.08 2.28,-0.19 h 0.22 l 2.26,0.17 0.19,0.02 2.45,0.58 0.26,0.07 2.47,1.13 0.27,0.17 2.35,1.82 0.17,0.12 2.23,2.26 0.12,0.14 1.8,2.38 0.09,0.09 1.47,2.4 0.14,0.27 0.91,2.4 0.08,0.26 0.36,2.5 v 0.31 l -0.24,2.16 -0.05,0.24 -0.6,1.61 -0.03,0.07 -0.62,1.15 c -0.12,0.24 -0.38,0.34 -0.65,0.24 -0.24,-0.07 -0.38,-0.31 -0.33,-0.57 l 0.19,-1.28 v 0.1 -1.68 l 0.02,0.12 -0.24,-2.16 0.03,0.12 -0.51,-2.47 0.1,0.26 -1.01,-2.35 0.1,0.19 -1.52,-2.35 0.08,0.07 -1.83,-2.35 0.12,0.12 -2.23,-2.28 0.14,0.12 -2.35,-1.8 0.27,0.14 -2.45,-1.12 0.24,0.09 -2.43,-0.6 0.2,0.05 -2.26,-0.22 h 0.26 l -2.28,0.2 0.32,-0.08 -2.02,0.65 0.17,-0.07 -1.73,0.86 0.34,-0.21 -1.3,1.15 0.22,-0.24 -0.96,1.44 0.14,-0.29 -0.55,1.39 0.07,-0.16 -0.31,1.41 0.02,-0.29 0.03,1.44 -0.08,-0.36 0.32,1.13 -0.22,-0.45 0.65,0.86 -0.41,-0.36 0.84,0.48 -0.26,-0.12 0.96,0.29 -0.39,-0.07 h 0.96 l -0.43,0.07 0.84,-0.29 -0.31,0.17 0.84,-0.58 -0.24,0.22 0.77,-0.84 -0.24,0.33 0.55,-1.15 -0.1,0.24 0.34,-1.32 -0.05,0.31 v -1.51 l 0.02,0.24 -0.31,-1.82 0.1,0.31 -0.77,-1.8 0.1,0.19 -1.08,-1.75 0.09,0.14 -1.39,-1.7 0.12,0.12 -1.7,-1.61 0.07,0.05 -1.92,-1.61 0.07,0.05 -2.14,-1.54 0.08,0.05 -2.26,-1.39 0.1,0.02 -2.26,-1.24 0.14,0.04 -2.25,-0.91 0.17,0.05 -2.26,-0.58 0.22,0.05 -2.02,-0.19 h 0.26 l -1.94,0.19 0.29,-0.07 -1.51,0.5 0.36,-0.16 -1.08,0.74 0.24,-0.24 -0.84,0.98 0.16,-0.26 -0.52,1.03 0.12,-0.38 -0.22,1.15 v -0.46 l 0.22,1.13 -0.12,-0.33 0.55,1.12 -0.17,-0.24 0.77,0.96 -0.19,-0.19 0.86,0.77 -0.26,-0.19 0.96,0.5 -0.17,-0.07 0.84,0.26 -0.41,-0.07 h 0.84 l -0.6,0.17 0.53,-0.29 -0.53,0.53 0.34,-0.58 -0.17,0.6 v -0.84 l 0.02,0.27 -0.21,-1.13 0.07,0.26 -0.63,-1.41 0.08,0.09 -0.96,-1.7 0.02,0.05 -1.27,-1.97 0.02,0.02 -1.61,-2.25 v 0.02 l -1.82,-2.52 0.1,0.12 -2.12,-2.35 0.08,0.07 -2.36,-2.18 0.1,0.07 -2.47,-1.9 0.12,0.08 -2.59,-1.64 0.09,0.05 -2.42,-1.25 0.09,0.05 -2.35,-0.93 0.19,0.04 -2.13,-0.48 0.26,0.05 h -2.01 l 0.24,-0.02 -1.95,0.36 0.31,-0.1 -1.63,0.77 0.24,-0.14 -1.39,1.05 0.26,-0.26 -0.98,1.34 0.19,-0.33 -0.5,1.48 0.02,-0.21 -0.21,1.53 v -0.4 l 0.21,1.34 -0.05,-0.22 0.41,1.13 -0.12,-0.24 0.65,0.96 -0.36,-0.36 0.96,0.65 -0.12,-0.07 0.96,0.5 -0.24,-0.12 1.06,0.31 -0.32,-0.04 h 1.06 l -0.36,0.04 0.96,-0.28 -0.36,0.19 0.77,-0.55 -0.29,0.28 0.55,-0.76 -0.21,0.45 0.21,-0.96 -0.02,0.24 v -1.13 l 0.02,0.27 -0.31,-1.35 0.07,0.24 -0.65,-1.41 0.03,0.05 -0.84,-1.59 0.05,0.07 -1.08,-1.7 0.07,0.1 -1.27,-1.64 0.07,0.08 -1.42,-1.54 0.12,0.1 -1.51,-1.32 0.12,0.09 -1.39,-0.93 0.12,0.04 -1.3,-0.67 0.48,0.12 -1.27,-0.09 h 0.29 l -1.23,0.16 0.29,-0.07 -1.05,0.43 0.14,-0.04 -0.98,0.55 0.14,-0.1 -0.86,0.67 0.12,-0.09 -0.92,0.91 0.12,-0.14 -0.62,0.96 0.07,-0.12 -0.55,1.12 0.05,-0.12 -0.43,1.25 0.02,-0.17 -0.24,1.23 0.02,-0.1 -0.12,1.23 v -0.05 l -0.02,1.13 v 0 l -0.05,0.84 v -0.1 l 0.07,0.67 -0.02,-0.09 0.07,0.36 v -0.03 l 0.19,0.67 h -0.02 l 0.07,0.17 -0.12,-0.21 0.34,0.48 c 0.17,0.24 0.14,0.57 -0.05,0.79 -0.22,0.21 -0.53,0.29 -0.79,0.14 z"
           style="fill:#000000;fill-opacity:1;fill-rule:nonzero;stroke:none"
           id="path2168" /></g><g
         id="g2190"><path
           d="m 344.78,693.29 0.17,0.53 v 0.09 l 0.03,0.19 -0.46,-0.45 h 0.14 c 0.34,0.02 0.65,0.26 0.75,0.62 0.09,0.34 -0.03,0.7 -0.29,0.91 l -0.07,0.08 -0.29,0.14 -0.19,0.07 c -0.17,0.05 -0.39,0.05 -0.55,0.03 l -0.22,-0.08 -0.26,-0.09 -0.32,-0.19 -0.19,-0.12 -0.43,-0.39 -0.17,-0.19 -0.31,-0.43 -0.05,-0.1 -0.43,-0.74 -0.1,-0.19 -0.33,-0.96 -0.05,-0.22 -0.22,-1.32 v -0.17 -1.58 -0.12 l 0.22,-1.8 0.02,-0.19 0.53,-1.9 0.05,-0.12 0.77,-1.82 0.09,-0.17 1.04,-1.61 0.16,-0.19 1.37,-1.35 0.17,-0.12 1.7,-1.15 0.2,-0.09 1.82,-0.77 0.14,-0.05 1.8,-0.53 0.24,-0.02 1.8,-0.1 h 0.22 l 1.68,0.19 0.26,0.05 1.61,0.58 0.17,0.05 1.49,0.76 0.19,0.12 1.32,1.06 0.07,0.07 1.06,1.01 v 0 l 0.98,0.96 0.12,0.17 0.67,0.93 0.1,0.15 0.43,0.86 0.1,0.24 0.24,0.84 c 0.05,0.24 0.05,0.46 0,0.7 l -0.22,0.74 -0.12,0.29 -0.31,0.55 -0.17,0.27 -0.43,0.45 -0.29,0.24 -0.53,0.31 c -0.14,0.08 -0.31,0.15 -0.48,0.17 l -0.64,0.1 c -0.17,0 -0.34,0 -0.51,-0.05 l -0.74,-0.19 -0.12,-0.05 -0.77,-0.29 -0.31,-0.17 -0.65,-0.48 -0.17,-0.16 -0.65,-0.75 c -0.12,-0.12 -0.21,-0.26 -0.26,-0.43 l -0.41,-1.25 -0.07,-0.26 -0.19,-1.61 -0.03,-0.17 v -1.8 l 0.03,-0.21 0.31,-1.97 0.05,-0.22 0.62,-1.89 0.12,-0.22 1.08,-1.92 0.12,-0.17 1.49,-1.82 0.24,-0.22 2.04,-1.49 0.1,-0.07 2.23,-1.34 0.19,-0.1 2.47,-0.96 0.19,-0.05 2.55,-0.6 0.19,-0.02 2.88,-0.22 0.22,0.03 2.97,0.26 0.1,0.03 3,0.45 0.14,0.05 2.79,0.74 0.09,0.05 2.5,0.94 0.02,0.02 2.26,0.96 0.07,0.05 1.92,0.96 0.12,0.05 1.49,0.93 0.12,0.08 1.27,0.96 0.24,0.21 0.72,0.94 0.19,0.29 0.43,0.96 0.12,0.38 0.12,0.94 c 0.03,0.16 0.03,0.33 -0.02,0.5 l -0.24,0.86 c -0.02,0.17 -0.12,0.34 -0.22,0.48 l -0.5,0.68 c -0.12,0.14 -0.24,0.26 -0.41,0.38 l -0.96,0.55 c -0.14,0.1 -0.31,0.15 -0.45,0.17 l -1.2,0.22 -0.36,0.02 -1.37,-0.12 -0.39,-0.07 -1.51,-0.58 -0.07,-0.02 -1.46,-0.67 -0.2,-0.1 -1.39,-0.89 -0.14,-0.12 -1.2,-1.01 -0.19,-0.19 -0.96,-1.27 -0.15,-0.24 -0.74,-1.51 -0.12,-0.36 -0.34,-1.92 -0.02,-0.24 v -2.26 l 0.02,-0.29 0.48,-2.18 0.05,-0.24 0.86,-2.09 0.15,-0.26 1.15,-1.71 0.1,-0.12 1.51,-1.72 0.21,-0.2 1.61,-1.22 0.19,-0.12 1.83,-0.96 0.19,-0.1 2.02,-0.62 0.21,-0.07 2.35,-0.36 0.22,-0.03 h 2.23 0.17 l 2.35,0.29 0.19,0.05 2.14,0.55 0.22,0.07 1.94,0.84 0.17,0.1 1.68,1.06 0.12,0.04 1.49,1.16 0.19,0.14 1.15,1.22 -0.02,-0.02 0.96,0.96 0.12,0.12 0.67,0.86 0.09,0.17 0.44,0.75 0.12,0.26 0.21,0.65 0.05,0.41 0.02,0.6 c 0.03,0.33 -0.09,0.67 -0.31,0.93 l -0.31,0.36 c -0.1,0.12 -0.19,0.22 -0.31,0.29 l -0.43,0.29 c -0.17,0.14 -0.41,0.21 -0.63,0.24 l -0.74,0.09 h -0.31 l -0.87,-0.09 -0.38,-0.1 -0.96,-0.36 -0.34,-0.17 -0.93,-0.69 -0.22,-0.19 -0.96,-1.06 -0.14,-0.17 -0.89,-1.34 -0.12,-0.27 -0.65,-1.63 -0.07,-0.33 -0.22,-1.9 -0.02,-0.17 v -1.99 l 0.05,-0.29 0.4,-2.09 0.1,-0.26 0.86,-2.09 0.1,-0.17 1.15,-1.94 0.15,-0.22 1.39,-1.58 0.19,-0.17 1.8,-1.44 0.29,-0.17 2.16,-1.05 0.29,-0.12 2.42,-0.58 0.29,-0.05 2.59,-0.07 h 0.26 l 2.55,0.39 0.24,0.04 2.66,0.84 0.15,0.08 2.8,1.24 0.2,0.12 2.52,1.59 0.07,0.05 2.28,1.72 0.14,0.12 1.9,1.92 c 0.36,0.34 0.38,0.89 0.09,1.25 -0.31,0.39 -0.84,0.48 -1.24,0.22 l -2.31,-1.44 v 0 l -2.42,-1.51 0.07,0.04 -2.59,-1.48 0.12,0.09 -2.81,-1.25 0.14,0.05 -2.66,-0.84 0.24,0.05 -2.54,-0.38 0.24,0.02 -2.57,0.07 0.29,-0.02 -2.45,0.55 0.31,-0.1 -2.16,1.04 0.26,-0.17 -1.82,1.46 0.19,-0.19 -1.39,1.58 0.17,-0.19 -1.18,1.92 0.1,-0.19 -0.89,2.06 0.1,-0.26 -0.46,2.09 0.05,-0.29 v 1.99 -0.17 l 0.21,1.9 -0.09,-0.36 0.65,1.63 -0.15,-0.29 0.87,1.35 -0.12,-0.19 0.96,1.05 -0.22,-0.19 0.94,0.67 -0.34,-0.17 0.96,0.36 -0.38,-0.09 0.88,0.09 h -0.28 l 0.72,-0.07 -0.63,0.22 0.41,-0.29 -0.26,0.26 0.31,-0.36 -0.36,0.92 v -0.6 l 0.07,0.4 -0.19,-0.62 0.12,0.26 -0.43,-0.76 0.12,0.16 -0.65,-0.84 0.12,0.12 -0.96,-0.96 v -0.02 l -1.18,-1.2 0.17,0.14 -1.51,-1.15 0.12,0.07 -1.71,-1.03 0.17,0.07 -1.92,-0.84 0.19,0.08 -2.13,-0.58 0.17,0.05 -2.36,-0.29 h 0.17 -2.23 0.22 l -2.38,0.36 0.22,-0.05 -2.02,0.65 0.24,-0.1 -1.82,0.96 0.19,-0.12 -1.61,1.23 0.19,-0.19 -1.51,1.72 0.12,-0.12 -1.18,1.68 0.15,-0.24 -0.84,2.09 0.07,-0.24 -0.48,2.21 0.05,-0.29 v 2.26 l -0.03,-0.24 0.34,1.92 -0.12,-0.39 0.77,1.54 -0.17,-0.24 0.96,1.25 -0.19,-0.22 1.2,1.03 -0.17,-0.12 1.39,0.89 -0.19,-0.12 1.49,0.67 -0.07,-0.02 1.51,0.55 -0.39,-0.07 1.4,0.12 h -0.34 l 1.18,-0.19 -0.46,0.17 0.96,-0.58 -0.41,0.36 0.53,-0.67 -0.24,0.45 0.24,-0.84 -0.05,0.51 -0.09,-0.94 0.09,0.39 -0.41,-0.96 0.17,0.31 -0.72,-0.96 0.24,0.24 -1.27,-0.96 0.1,0.07 -1.49,-0.94 0.09,0.05 -1.94,-0.96 0.07,0.05 -2.23,-0.98 0.07,0.02 -2.47,-0.94 0.12,0.05 -2.78,-0.77 0.14,0.03 -3,-0.51 0.07,0.03 -2.97,-0.29 h 0.21 l -2.9,0.19 0.19,-0.05 -2.54,0.58 0.19,-0.05 -2.47,0.96 0.19,-0.09 -2.26,1.32 0.12,-0.08 -2.04,1.52 0.22,-0.22 -1.49,1.82 0.12,-0.19 -1.08,1.9 0.12,-0.24 -0.65,1.92 0.05,-0.22 -0.29,1.99 v -0.19 1.8 -0.14 l 0.22,1.61 -0.07,-0.27 0.43,1.25 -0.27,-0.43 0.65,0.74 -0.17,-0.17 0.63,0.48 -0.34,-0.19 0.77,0.29 -0.12,-0.05 0.74,0.22 -0.5,-0.05 0.65,-0.07 -0.46,0.14 0.53,-0.29 -0.29,0.22 0.43,-0.43 -0.19,0.24 0.31,-0.58 -0.09,0.24 0.24,-0.74 -0.03,0.67 -0.21,-0.84 0.07,0.22 -0.41,-0.89 0.1,0.17 -0.65,-0.94 0.14,0.17 -0.96,-0.96 h 0.03 l -1.06,-1.01 0.1,0.07 -1.3,-1.08 0.19,0.15 -1.46,-0.77 0.14,0.07 -1.63,-0.58 0.27,0.05 -1.71,-0.19 h 0.19 l -1.82,0.07 0.24,-0.05 -1.8,0.46 0.14,-0.05 -1.82,0.77 0.19,-0.1 -1.75,1.13 0.17,-0.14 -1.39,1.34 0.16,-0.19 -1.05,1.61 0.09,-0.17 -0.76,1.8 0.04,-0.12 -0.55,1.9 0.05,-0.17 -0.22,1.8 v -0.12 1.58 -0.14 l 0.2,1.32 -0.05,-0.19 0.33,0.96 -0.07,-0.15 0.41,0.77 -0.05,-0.07 0.31,0.43 -0.14,-0.17 0.43,0.41 -0.14,-0.1 0.31,0.22 -0.14,-0.07 0.21,0.09 -0.14,-0.07 0.19,0.07 0.29,0.17 0.07,0.05 h -1.08 l 0.12,-0.07 -0.19,0.33 0.02,-0.19 v 0.05 l -0.05,-0.55 c 0,-0.22 0.17,-0.41 0.36,-0.46 0.22,-0.02 0.44,0.12 0.48,0.34 z"
           style="fill:#000000;fill-opacity:1;fill-rule:nonzero;stroke:none"
           id="path2192" /></g></g><g
       id="g2208"><g
         id="g2210"
         clip-path="url(#clipPath2214)"><g
           id="g2216" /></g></g><g
       id="g2242"><g
         id="g2244"
         clip-path="url(#clipPath2248)"><g
           id="g2250"><g
             id="g2252"
             clip-path="url(#clipPath2256)" /></g></g></g><g
       id="g2278"><g
         id="g2280"
         clip-path="url(#clipPath2284)"><g
           id="g2286"><g
             id="g2288"
             clip-path="url(#clipPath2292)" /></g></g></g></g></svg>
